INDEX VERSION 1.131+D:\SpringWorkSpaces\junit\.metadata\.plugins\org.eclipse.jdt.core
1917223887.index
619925673.index
2785212304.index
2858976049.index
3040330951.index
3885821123.index
3096171027.index
2238131023.index
1974305938.index
1487392840.index
2438784970.index
4285970193.index
1974793385.index
1500638797.index
873277039.index
3578765681.index
2802115123.index
3478937154.index
147629464.index
347695463.index
3617695274.index
1322958611.index
4029164763.index
2693304418.index
3615583800.index
983910415.index
2458221897.index
96320051.index
1810164413.index
3932535395.index
289371925.index
1250718433.index
141324156.index
3236925351.index
3756323655.index
850808204.index
3742769191.index
2899198020.index
1350661773.index
2226660476.index
827531654.index
3288847697.index
1016527641.index
632529141.index
506635961.index
1718550536.index
288477893.index
1197214860.index
3751834167.index
2836137089.index
385997441.index
2212096634.index
2966530904.index
1152382690.index
40264491.index
2421960050.index
1284735298.index
3898599632.index
1271881020.index
1502919148.index
3692527599.index
1392234833.index
2121832556.index
2863069864.index
1710636785.index
2183128997.index
965964041.index
37555410.index
2395462800.index
1950552965.index
1654236974.index
312146980.index
2193932861.index
2129821187.index
10310312.index
343083680.index
564834622.index
3512211998.index
3543916403.index
4220874573.index
1768901230.index
1137754838.index
3639899220.index
2216560813.index
1289699494.index
2935430240.index
1991667110.index
442894245.index
1602136718.index
2716267566.index
1623474065.index
963735049.index
2515505180.index
3290377141.index
109994455.index
159419129.index
2983701004.index
2341294296.index
94134389.index
3619062577.index
527816575.index
4141735597.index
2511714549.index
1152937124.index
2781254563.index
717240182.index
968435844.index
2810780140.index
3844726944.index
365840701.index
1628800249.index
1139993573.index
2877475932.index
1887746963.index
494659445.index
3640923130.index
2254081199.index
2311485835.index
2555124210.index
2964302529.index
1239212079.index
1342828103.index
394437738.index
4217878804.index
607338561.index
945002495.index
3840294055.index
974378669.index
2909944309.index
484418513.index
939568009.index
2373755881.index
332610660.index
2937330712.index
416869917.index
1092703090.index
299569169.index
1434586922.index
643919238.index
3446442589.index
2811057693.index
1478822665.index
4166476503.index
3550548490.index
839607344.index
2199455663.index
